Data manipulation via tidyverse (focus on readr, dplyr)
…
type_convert(): If the data type is unknown first, can set data type
to character, then use it to see the most likely data type

challenge2 <- read_csv(readr_example("challenge.csv"),
col_types = cols(.default = col_character())
)

challenge2

## # A tibble: 2,000 x 2
##    x     y    
##    <chr> <chr>
##  1 404   <NA> 
##  2 4172  <NA> 
##  3 3004  <NA> 
##  4 787   <NA> 
##  5 37    <NA> 
##  6 2332  <NA> 
##  7 2489  <NA> 
##  8 1449  <NA> 
##  9 3665  <NA> 
## 10 3863  <NA> 
## # ... with 1,990 more rows

type_convert(challenge2)

## 
## -- Column specification -------------------------------------------------------------------------------------------------------
## cols(
##   x = col_double(),
##   y = col_date(format = "")
## )

## # A tibble: 2,000 x 2
##        x y     
##    <dbl> <date>
##  1   404 NA    
##  2  4172 NA    
##  3  3004 NA    
##  4   787 NA    
##  5    37 NA    
##  6  2332 NA    
##  7  2489 NA    
##  8  1449 NA    
##  9  3665 NA    
## 10  3863 NA    
## # ... with 1,990 more rows
…
Control the default print behavior by setting options
options(tibble.print_max = n, tibble.print_min = m)
options(tibble.print_min = Inf) options(tibble.width = Inf)

library(tidyverse)

tibble(
a = lubridate::now() + runif(1e3) * 86400,
b = lubridate::today() + runif(1e3) * 30,
c = 1:1e3,
d = runif(1e3),
e = sample(letters, 1e3, replace = TRUE)
)

## # A tibble: 1,000 x 5
##    a                   b              c      d e    
##    <dttm>              <date>     <int>  <dbl> <chr>
##  1 2022-09-16 11:52:10 2022-10-06     1 0.215  m    
##  2 2022-09-16 12:10:03 2022-10-12     2 0.904  i    
##  3 2022-09-15 19:47:53 2022-09-25     3 0.0273 v    
##  4 2022-09-15 21:52:05 2022-09-24     4 0.679  m    
##  5 2022-09-16 10:39:32 2022-10-05     5 0.190  z    
##  6 2022-09-16 09:26:03 2022-09-22     6 0.919  p    
##  7 2022-09-15 19:58:12 2022-10-03     7 0.524  c    
##  8 2022-09-16 10:57:03 2022-10-02     8 0.695  t    
##  9 2022-09-16 03:04:40 2022-10-14     9 0.362  j    
## 10 2022-09-16 03:45:30 2022-10-11    10 0.831  s    
## # ... with 990 more rows

width = Inf will display all columns

nycflights13::flights %>%
  print(n = 10, width = Inf)

## # A tibble: 336,776 x 19
##     year month   day dep_time sched_dep_time dep_delay arr_time sched_arr_time arr_delay carrier flight tailnum origin dest 
##    <int> <int> <int>    <int>          <int>     <dbl>    <int>          <int>     <dbl> <chr>    <int> <chr>   <chr>  <chr>
##  1  2013     1     1      517            515         2      830            819        11 UA        1545 N14228  EWR    IAH  
##  2  2013     1     1      533            529         4      850            830        20 UA        1714 N24211  LGA    IAH  
##  3  2013     1     1      542            540         2      923            850        33 AA        1141 N619AA  JFK    MIA  
##  4  2013     1     1      544            545        -1     1004           1022       -18 B6         725 N804JB  JFK    BQN  
##  5  2013     1     1      554            600        -6      812            837       -25 DL         461 N668DN  LGA    ATL  
##  6  2013     1     1      554            558        -4      740            728        12 UA        1696 N39463  EWR    ORD  
##  7  2013     1     1      555            600        -5      913            854        19 B6         507 N516JB  EWR    FLL  
##  8  2013     1     1      557            600        -3      709            723       -14 EV        5708 N829AS  LGA    IAD  
##  9  2013     1     1      557            600        -3      838            846        -8 B6          79 N593JB  JFK    MCO  
## 10  2013     1     1      558            600        -2      753            745         8 AA         301 N3ALAA  LGA    ORD  
##    air_time distance  hour minute time_hour          
##       <dbl>    <dbl> <dbl>  <dbl> <dttm>             
##  1      227     1400     5     15 2013-01-01 05:00:00
##  2      227     1416     5     29 2013-01-01 05:00:00
##  3      160     1089     5     40 2013-01-01 05:00:00
##  4      183     1576     5     45 2013-01-01 05:00:00
##  5      116      762     6      0 2013-01-01 06:00:00
##  6      150      719     5     58 2013-01-01 05:00:00
##  7      158     1065     6      0 2013-01-01 06:00:00
##  8       53      229     6      0 2013-01-01 06:00:00
##  9      140      944     6      0 2013-01-01 06:00:00
## 10      138      733     6      0 2013-01-01 06:00:00
## # ... with 336,766 more rows
…
library(nycflights13)
library(tidyverse)
rename(flights, tail_num = tailnum)

Fix the position of variables: move some variables to the start of
the data frame

library(nycflights13)

## Warning: 'nycflights13'R4.2.1 

library(tidyverse)
select(flights, time_hour, air_time, everything())

## # A tibble: 336,776 x 19
##    time_hour           air_time  year month   day dep_time sched_dep_time dep_delay arr_time sched_arr_time arr_delay carrier
##    <dttm>                 <dbl> <int> <int> <int>    <int>          <int>     <dbl>    <int>          <int>     <dbl> <chr>  
##  1 2013-01-01 05:00:00      227  2013     1     1      517            515         2      830            819        11 UA     
##  2 2013-01-01 05:00:00      227  2013     1     1      533            529         4      850            830        20 UA     
##  3 2013-01-01 05:00:00      160  2013     1     1      542            540         2      923            850        33 AA     
##  4 2013-01-01 05:00:00      183  2013     1     1      544            545        -1     1004           1022       -18 B6     
##  5 2013-01-01 06:00:00      116  2013     1     1      554            600        -6      812            837       -25 DL     
##  6 2013-01-01 05:00:00      150  2013     1     1      554            558        -4      740            728        12 UA     
##  7 2013-01-01 06:00:00      158  2013     1     1      555            600        -5      913            854        19 B6     
##  8 2013-01-01 06:00:00       53  2013     1     1      557            600        -3      709            723       -14 EV     
##  9 2013-01-01 06:00:00      140  2013     1     1      557            600        -3      838            846        -8 B6     
## 10 2013-01-01 06:00:00      138  2013     1     1      558            600        -2      753            745         8 AA     
## # ... with 336,766 more rows, and 7 more variables: flight <int>, tailnum <chr>, origin <chr>, dest <chr>, distance <dbl>,
## #   hour <dbl>, minute <dbl>
…
Grouping by Multiple Variables

note: The sum of groupwise sums is the overall sum, but the median
of groupwise medians is not the overall median.

library(nycflights13)
library(tidyverse)

daily <- group_by(flights, year, month, day)
(per_day <- summarize(daily, mdist = mean(distance)))

## `summarise()` has grouped output by 'year', 'month'. You can override using the `.groups` argument.

## # A tibble: 365 x 4
## # Groups:   year, month [12]
##     year month   day mdist
##    <int> <int> <int> <dbl>
##  1  2013     1     1 1077.
##  2  2013     1     2 1053.
##  3  2013     1     3 1037.
##  4  2013     1     4 1032.
##  5  2013     1     5 1068.
##  6  2013     1     6 1052.
##  7  2013     1     7  998.
##  8  2013     1     8  986.
##  9  2013     1     9  981.
## 10  2013     1    10  993.
## # ... with 355 more rows
…
